<svg xmlns="http://www.w3.org/2000/svg" width="9.598" height="6.074" viewBox="0 0 9.598 6.074">
  <path id="Union_8" data-name="Union 8" d="M5.541,6.243a.716.716,0,0,1-.527-.211L1.454,2.47A.719.719,0,0,1,2.47,1.454L5.541,4.524,8.612,1.454A.719.719,0,0,1,9.63,2.47L6.069,6.032a.718.718,0,0,1-.509.211Z" transform="translate(-0.743 -0.669)" fill="#212121" stroke="#212121" stroke-width="1"/>
</svg>
