<svg xmlns="http://www.w3.org/2000/svg" width="60" height="80" viewBox="0 0 60 80">
  <path id="Path_3441" data-name="Path 3441" d="M-383.554,382h-5v-6.667A23.36,23.36,0,0,0-411.887,352a23.36,23.36,0,0,0-23.333,23.333V382h-5a1.666,1.666,0,0,0-1.667,1.667v41.667A6.673,6.673,0,0,0-435.22,432h46.667a6.673,6.673,0,0,0,6.667-6.667V383.667A1.666,1.666,0,0,0-383.554,382Zm-39.041,20.444a11.636,11.636,0,0,1,10.708-7.111,11.581,11.581,0,0,1,8.148,3.344l.787-1.183a.81.81,0,0,1,.911-.326.809.809,0,0,1,.574.779l-.029,6.295a.813.813,0,0,1-.372.678.812.812,0,0,1-.771.058l-5.712-2.57a.811.811,0,0,1-.471-.848.81.81,0,0,1,.679-.692l1.039-.161a7.785,7.785,0,0,0-4.782-1.643,7.893,7.893,0,0,0-7.271,4.847,1.857,1.857,0,0,1-1.711,1.138,1.874,1.874,0,0,1-1.561-.84A1.874,1.874,0,0,1-422.595,402.444Zm21.416,9.022a11.635,11.635,0,0,1-10.708,7.111,11.579,11.579,0,0,1-8.148-3.344l-.787,1.184a.811.811,0,0,1-.911.326.809.809,0,0,1-.574-.779l.029-6.295a.813.813,0,0,1,.372-.678.812.812,0,0,1,.771-.058l5.713,2.57a.811.811,0,0,1,.471.848.811.811,0,0,1-.679.693l-1.039.161a7.785,7.785,0,0,0,4.782,1.643A7.893,7.893,0,0,0-404.615,410a1.857,1.857,0,0,1,1.711-1.138,1.873,1.873,0,0,1,1.561.84A1.872,1.872,0,0,1-401.179,411.467ZM-398.554,382H-425.22v-6.667A13.348,13.348,0,0,1-411.887,362a13.348,13.348,0,0,1,13.333,13.333Z" transform="translate(441.887 -352)" fill="#0b5388"/>
</svg>
