<svg xmlns="http://www.w3.org/2000/svg" width="14" height="14" viewBox="0 0 14 14">
  <path id="if_icon-ios7-search_211818" d="M78.3,77.151l-4.131-4.134a5.55,5.55,0,1,0-.846.849L77.451,78ZM66.334,73.064a4.96,4.96,0,1,1,3.507,1.451A4.93,4.93,0,0,1,66.334,73.064Z" transform="translate(-64.3 -64)" fill="#3775ad"/>
</svg>
