<svg xmlns="http://www.w3.org/2000/svg" width="80" height="86.082" viewBox="0 0 80 86.082">
  <g id="Group_3497" data-name="Group 3497" transform="translate(-173.385 -355.088)">
    <path id="Path_3275" data-name="Path 3275" d="M223.713,381.952a13.251,13.251,0,0,0,5.772,5.36,14,14,0,0,0,8.405.874c4.115-.729,6.918-3.188,8.954-6.68a25.666,25.666,0,0,0,2.974-10.993,19.01,19.01,0,0,0-.439-6.452,11.406,11.406,0,0,0-3.078-5.6,12.7,12.7,0,0,0-7.569-3.085,6.9,6.9,0,0,1-2.338-.283h-2.533a.206.206,0,0,1-.234.156,20.071,20.071,0,0,0-5.347.792,9.681,9.681,0,0,0-5.308,3.593,13.975,13.975,0,0,0-2.559,8.188,29.1,29.1,0,0,0,.451,5.749A22.319,22.319,0,0,0,223.713,381.952Z" transform="translate(-27.813)" fill="#0b5388"/>
    <path id="Path_3276" data-name="Path 3276" d="M308.83,482.645a19.539,19.539,0,0,0-1.058-4.731c-1.127,1.264-2.222,2.439-3.248,3.671-.376.451-.847.828-.8,1.616a16.338,16.338,0,0,1-.351,5.369,15.655,15.655,0,0,1-5.256,8.27A15.157,15.157,0,0,1,283.3,499.69a14.775,14.775,0,0,1-7.224-4.981,15.142,15.142,0,0,1-3.119-13.625,15.333,15.333,0,0,1,8.005-10.143,13.833,13.833,0,0,1,5.169-1.64,7.266,7.266,0,0,1,2.643-.152,19.51,19.51,0,0,1,2.075.263.3.3,0,0,0,.4-.128c.8-1.483,1.825-2.84,2.564-4.361-.125-.1-.2-.2-.289-.221a23.563,23.563,0,0,0-7.489-.539,20.964,20.964,0,0,0-6.86,1.9,20.177,20.177,0,0,0-6.561,4.954,20.764,20.764,0,0,0-2.878,4.106,21.272,21.272,0,0,0-2.266,7.784,20.5,20.5,0,0,0,.464,6.8,20.7,20.7,0,0,0,21.847,15.846,21.641,21.641,0,0,0,6.911-1.738,20.782,20.782,0,0,0,12.01-15.668c.1-.645-.077-1.339.285-1.943v-2.849C308.675,483.175,308.85,482.883,308.83,482.645Z" transform="translate(-55.598 -64.465)" fill="#0aadef"/>
    <path id="Path_3277" data-name="Path 3277" d="M208.751,466.359c2.737-7.605,8.135-12.613,15.757-15.463a10.412,10.412,0,0,0-2.14-.869,49.909,49.909,0,0,0-7.589-1.931,55.939,55.939,0,0,0-6.63-.753,34.7,34.7,0,0,0-5,.283,44.556,44.556,0,0,0-6.842,1.2,39.666,39.666,0,0,0-9.863,3.785,26.739,26.739,0,0,0-8.254,6.963,23.692,23.692,0,0,0-4.731,13.148,36.964,36.964,0,0,0,.608,9.35,1.794,1.794,0,0,0,1.075,1.445,33.838,33.838,0,0,0,6,2.114,85.877,85.877,0,0,0,15.984,2.359,46.934,46.934,0,0,0,5.978.193,7.775,7.775,0,0,1,1.423.008,27.506,27.506,0,0,0,6.471-.041C206.964,481.176,206.031,473.917,208.751,466.359Z" transform="translate(0 -54.567)" fill="#0b5388"/>
    <path id="Path_3278" data-name="Path 3278" d="M298.728,483.275l-4.117,5.267,11.361,9.5c.17-.245.34-.378.47-.59.869-1.423,1.782-2.818,2.669-4.231q3.332-5.309,6.652-10.625c1.861-2.978,3.679-5.985,5.6-8.924.454-.694.041-.892-.328-1.173-.879-.669-1.763-1.336-2.695-1.927a20.238,20.238,0,0,0-2.357-1.609L305.063,488.2Z" transform="translate(-71.717 -67.37)" fill="#0aadef"/>
  </g>
</svg>
