<svg width="32" height="32" xmlns="http://www.w3.org/2000/svg">

 <g>
  <title>background</title>
  <rect fill="none" id="canvas_background" height="402" width="582" y="-1" x="-1"/>
 </g>
 <g>
  <title>Layer 1</title>
  <rect id="svg_1" width="32" height="32" fill="none"/>
  <path fill="#ffffff" id="svg_2" d="m32,23c-0.002,-4.973 -4.029,-9 -9,-9c-0.025,0 -0.049,0.003 -0.074,0.004c0.682,-1.178 1.074,-2.545 1.074,-4.004c0,-4.418 -3.582,-8 -8,-8c-4.418,0 -8,3.582 -8,8c0,4.26 3.332,7.732 7.531,7.977c-0.419,0.622 -0.753,1.304 -1.008,2.023l-10.523,0c-4,0 -4,4 -4,4l0,8l32,0l0,-8c0,0 0,-0.793 0,-1zm-2.117,0c-0.009,3.799 -3.084,6.874 -6.883,6.883c-3.801,-0.009 -6.876,-3.084 -6.885,-6.883c0.009,-3.801 3.084,-6.876 6.885,-6.884c3.799,0.008 6.874,3.083 6.883,6.884z"/>
  <polygon fill="#ffffff" id="svg_3" points="22,27 19,27 19,24  "/>
  <rect fill="#ffffff" id="svg_4" y="19.879" x="20.464" width="7.071" transform="matrix(-0.7071,0.7071,-0.7071,-0.7071,56.5269,20.5858) " height="4.243"/>
 </g>
</svg>