<svg xmlns="http://www.w3.org/2000/svg" xmlns:xlink="http://www.w3.org/1999/xlink" width="3" height="13" viewBox="0 0 3 13">
  <defs>
    <clipPath id="clip-path">
      <rect width="3" height="13" fill="none"/>
    </clipPath>
  </defs>
  <g id="Repeat_Grid_4" data-name="Repeat Grid 4" clip-path="url(#clip-path)">
    <g transform="translate(-892 -97)">
      <circle id="Ellipse_48" data-name="Ellipse 48" cx="1.5" cy="1.5" r="1.5" transform="translate(892 97)" fill="#212121"/>
    </g>
    <g transform="translate(-892 -92)">
      <circle id="Ellipse_48-2" data-name="Ellipse 48" cx="1.5" cy="1.5" r="1.5" transform="translate(892 97)" fill="#212121"/>
    </g>
    <g transform="translate(-892 -87)">
      <circle id="Ellipse_48-3" data-name="Ellipse 48" cx="1.5" cy="1.5" r="1.5" transform="translate(892 97)" fill="#212121"/>
    </g>
  </g>
</svg>
