<svg xmlns="http://www.w3.org/2000/svg" width="18.889" height="17" viewBox="0 0 18.889 17">
  <g id="printer-printing-document" transform="translate(0 -25.5)">
    <g id="print" transform="translate(0 25.5)">
      <path id="Path_3268" data-name="Path 3268" d="M16.056,30.222H2.833A2.783,2.783,0,0,0,0,33.056v5.667H3.778V42.5H15.111V38.722h3.778V33.056A2.783,2.783,0,0,0,16.056,30.222ZM13.222,40.611H5.667V35.889h7.556ZM16.056,34A.944.944,0,1,1,17,33.056.892.892,0,0,1,16.056,34Zm-.944-8.5H3.778v3.778H15.111Z" transform="translate(0 -25.5)" fill="#fff"/>
    </g>
  </g>
</svg>
