<svg id="_004-twitter-social-logotype" data-name="004-twitter-social-logotype" xmlns="http://www.w3.org/2000/svg" width="28.366" height="28.366" viewBox="0 0 28.366 28.366">
  <path id="Path_3245" data-name="Path 3245" d="M14.183,0A14.183,14.183,0,1,0,28.366,14.183,14.183,14.183,0,0,0,14.183,0ZM22.76,10.4q.01.251.01.5A12.206,12.206,0,0,1,10.445,23.23,12.277,12.277,0,0,1,3.8,21.283a.1.1,0,0,1-.042-.124.106.106,0,0,1,.111-.069,8.575,8.575,0,0,0,1.012.059,8.458,8.458,0,0,0,5.041-1.644,4.4,4.4,0,0,1-3.819-3.041.1.1,0,0,1,.12-.135,4.222,4.222,0,0,0,1.463.021,4.414,4.414,0,0,1-3.093-4.2v-.056A.105.105,0,0,1,4.65,12a.1.1,0,0,1,.1,0,4.206,4.206,0,0,0,1.535.5A4.4,4.4,0,0,1,5.228,6.845a.1.1,0,0,1,.082-.052.1.1,0,0,1,.09.038,12.133,12.133,0,0,0,8.639,4.441,4.453,4.453,0,0,1-.084-.866,4.4,4.4,0,0,1,7.571-3.053,8.483,8.483,0,0,0,2.638-1.018.1.1,0,0,1,.153.122A4.393,4.393,0,0,1,22.77,8.631a8.459,8.459,0,0,0,1.982-.6.105.105,0,0,1,.13.155A8.77,8.77,0,0,1,22.76,10.4Z" fill="#fff"/>
</svg>
